<svg xmlns="http://www.w3.org/2000/svg" width="86" height="73" viewBox="0 0 86 73">
  <path d="M39.4062016,66.105293 C40.1327112,68.8166637 38.5200115,71.6099415 35.8086408,72.3364511 C33.2667307,73.0175539 30.473453,71.4048542 29.7469434,68.6934835 C29.0658406,66.1515734 30.6785403,63.3582956 33.2204504,62.6771929 C35.9318211,61.9506833 38.7250989,63.5633829 39.4062016,66.105293 Z M66.9042691,25.6060057 C68.782772,25.6060057 70.3173639,27.0780453 70.4175827,28.931472 L70.4227888,29.1245216 L70.4227888,41.0874546 L82.3857518,41.0874546 C84.3289572,41.0874546 85.9042691,42.6626942 85.9042691,44.6059494 C85.9042691,46.4844498 84.4322283,48.0190404 82.5788013,48.1192592 L82.3857518,48.1244653 L70.4227888,48.1244653 L70.4227888,60.0874898 C70.4227888,62.0306957 68.847548,63.6060057 66.9042691,63.6060057 C65.0257681,63.6060057 63.4911764,62.1339661 63.3909575,60.2805393 L63.3857514,60.0874898 L63.3857514,48.1244653 L51.4227878,48.1244653 C49.4795803,48.1244653 47.9042691,46.5492257 47.9042691,44.6059494 C47.9042691,42.7274693 49.3763099,41.1928795 51.2297381,41.0926607 L51.4227878,41.0874546 L63.3857514,41.0874546 L63.3857514,29.1245216 C63.3857514,27.1813156 64.9609922,25.6060057 66.9042691,25.6060057 Z M34.9532645,3.23900032 C45.2108622,8.45329296 49.1342673,20.2201979 44.5871166,30.5666999 C42.2407107,35.4681435 39.1319452,38.2432829 34.7166202,41.1742991 C33.3760065,41.9219451 32.6861454,43.6605114 33.1231288,45.2913555 L35.1623844,52.9019611 C35.6964752,54.8952149 34.5645761,57.1406546 32.4079945,57.7185088 C30.4311281,58.2482086 28.1484398,56.9177049 27.6143491,54.924451 L25.5750934,47.3138454 C24.2155897,42.2401084 26.2851731,37.0244095 30.7490518,34.2745982 C33.7411556,32.5017923 35.9172914,30.5591947 37.3455674,27.263267 C40.250673,20.8526165 37.9490945,13.7007297 31.4749595,10.3858836 C22.7666899,5.92173869 10.5265069,10.5609896 7.72795378,20.2447414 C7.3149152,22.297563 5.17283337,23.6483914 2.90464474,23.0908617 C0.816171236,22.4851776 -0.354172314,20.2739775 0.238581395,18.1730014 C4.07698081,3.74368275 22.0049944,-3.39069188 34.9532645,3.23900032 Z"/>
</svg>
