<svg xmlns="http://www.w3.org/2000/svg" width="87" height="87" viewBox="0 0 87 87">
  <path d="M76.7708333,3.85416667 C72.7083333,-0.208333333 66.1458333,-0.208333333 62.0833333,3.85416667 L8.64583333,57.1875 C8.4375,57.3958333 8.33333333,57.5 8.22916667,57.7083333 C8.22916667,57.7083333 8.22916667,57.8125 8.125,57.8125 C8.02083333,58.0208333 7.91666667,58.125 7.91666667,58.3333333 C7.91666667,58.3333333 7.91666667,58.4375 7.91666667,58.4375 L0.833333333,81.5625 C0.520833333,82.7083333 0.833333333,83.8541667 1.5625,84.6875 C2.1875,85.3125 2.91666667,85.625 3.75,85.625 C4.0625,85.625 4.375,85.625 4.6875,85.5208333 L27.7083333,78.4375 C27.7083333,78.4375 27.8125,78.4375 27.8125,78.4375 C28.0208333,78.3333333 28.2291667,78.3333333 28.3333333,78.2291667 C28.3333333,78.2291667 28.4375,78.2291667 28.4375,78.125 C28.6458333,78.0208333 28.8541667,77.9166667 28.9583333,77.7083333 L82.2916667,24.375 C86.3541667,20.3125 86.3541667,13.75 82.2916667,9.6875 L76.7708333,3.85416667 Z M8.54166667,77.7083333 L12.3958333,65.3125 L21.0416667,73.9583333 L8.54166667,77.7083333 Z" transform="translate(.292 .25)"/>
</svg>
