<svg xmlns="http://www.w3.org/2000/svg" width="92" height="92" viewBox="0 0 92 92">
  <path d="M90.25,41.75 C89.0760417,40.5808594 87.659375,39.997526 85.9999922,39.9999922 L51.9999922,39.9999922 L51.9999922,5.99999216 C52.002474,4.340625 51.4191406,2.92395833 50.25,1.75 C49.0760417,0.580859375 47.659375,-0.00247395833 45.9999922,-7.83594271e-06 C44.340625,-0.00247395833 42.9239583,0.580859375 41.75,1.75 C40.5808594,2.92395833 39.997526,4.340625 39.9999922,5.99999216 L39.9999922,39.9999922 L5.99999216,39.9999922 C4.340625,39.997526 2.92395833,40.5808594 1.75,41.75 C0.580859375,42.9239583 -0.00247395833,44.340625 -7.83594271e-06,45.9999922 C-0.00247395833,47.659375 0.580859375,49.0760417 1.75,50.25 C2.92395833,51.4191406 4.340625,52.002474 5.99999216,51.9999922 L39.9999922,51.9999922 L39.9999922,85.9999922 C39.997526,87.659375 40.5808594,89.0760417 41.75,90.25 C42.9239583,91.4191406 44.340625,92.002474 45.9999922,92.0000078 C47.659375,92.002474 49.0760417,91.4191406 50.25,90.25 C51.4191406,89.0760417 52.002474,87.659375 51.9999922,85.9999922 L51.9999922,51.9999922 L85.9999922,51.9999922 C87.659375,52.002474 89.0760417,51.4191406 90.25,50.25 C91.4191406,49.0760417 92.002474,47.659375 92.0000078,45.9999922 C92.002474,44.340625 91.4191406,42.9239583 90.25,41.75 Z"/>
</svg>
