<svg width="512" height="512" viewBox="0 0 512 512" fill="none" xmlns="http://www.w3.org/2000/svg">
<circle cx="256" cy="256" r="256" fill="white"/>
<mask id="mask0" mask-type="alpha" maskUnits="userSpaceOnUse" x="85" y="212" width="387" height="264">
<path fill-rule="evenodd" clip-rule="evenodd" d="M166.765 282.864L85 305.354C110.779 399.075 207.653 454.153 301.374 428.375C395.096 402.596 450.174 305.722 424.395 212L344.56 233.96C353.497 280.847 325.027 327.488 278.205 340.367C231.383 353.245 183.064 327.726 166.765 282.864Z" fill="white"/>
</mask>
<g mask="url(#mask0)">
<mask id="mask1" mask-type="alpha" maskUnits="userSpaceOnUse" x="0" y="50" width="512" height="512">
<circle cx="256" cy="306" r="256" fill="white"/>
</mask>
<g mask="url(#mask1)">
<g filter="url(#filter0_f)">
<g filter="url(#filter1_f)">
<ellipse cx="185.5" cy="532.5" rx="185.5" ry="194.5" fill="#3E3BD5"/>
</g>
<g filter="url(#filter2_f)">
<ellipse cx="55.5" cy="382.5" rx="185.5" ry="194.5" fill="#5B59D6"/>
</g>
<g filter="url(#filter3_f)">
<ellipse cx="449.5" cy="488" rx="184.5" ry="239" transform="rotate(-31.854 449.5 488)" fill="#598BD6"/>
</g>
<g filter="url(#filter4_f)">
<circle cx="395" cy="167" r="239" fill="#8959D6"/>
</g>
<g filter="url(#filter5_f)">
<ellipse cx="81.5187" cy="119.148" rx="154.66" ry="239" transform="rotate(-39.5186 81.5187 119.148)" fill="#59D6C0"/>
</g>
</g>
</g>
</g>
<defs>
<filter id="filter0_f" x="-309.871" y="-283.636" width="1162.22" height="1192.01" filterUnits="userSpaceOnUse" color-interpolation-filters="sRGB">
<feFlood flood-opacity="0" result="BackgroundImageFix"/>
<feBlend mode="normal" in="SourceGraphic" in2="BackgroundImageFix" result="shape"/>
<feGaussianBlur stdDeviation="60" result="effect1_foregroundBlur"/>
</filter>
<filter id="filter1_f" x="-100" y="238" width="571" height="589" filterUnits="userSpaceOnUse" color-interpolation-filters="sRGB">
<feFlood flood-opacity="0" result="BackgroundImageFix"/>
<feBlend mode="normal" in="SourceGraphic" in2="BackgroundImageFix" result="shape"/>
<feGaussianBlur stdDeviation="50" result="effect1_foregroundBlur"/>
</filter>
<filter id="filter2_f" x="-230" y="88" width="571" height="589" filterUnits="userSpaceOnUse" color-interpolation-filters="sRGB">
<feFlood flood-opacity="0" result="BackgroundImageFix"/>
<feBlend mode="normal" in="SourceGraphic" in2="BackgroundImageFix" result="shape"/>
<feGaussianBlur stdDeviation="50" result="effect1_foregroundBlur"/>
</filter>
<filter id="filter3_f" x="66.6523" y="87.623" width="765.694" height="800.753" filterUnits="userSpaceOnUse" color-interpolation-filters="sRGB">
<feFlood flood-opacity="0" result="BackgroundImageFix"/>
<feBlend mode="normal" in="SourceGraphic" in2="BackgroundImageFix" result="shape"/>
<feGaussianBlur stdDeviation="50" result="effect1_foregroundBlur"/>
</filter>
<filter id="filter4_f" x="56" y="-172" width="678" height="678" filterUnits="userSpaceOnUse" color-interpolation-filters="sRGB">
<feFlood flood-opacity="0" result="BackgroundImageFix"/>
<feBlend mode="normal" in="SourceGraphic" in2="BackgroundImageFix" result="shape"/>
<feGaussianBlur stdDeviation="50" result="effect1_foregroundBlur"/>
</filter>
<filter id="filter5_f" x="-289.871" y="-263.636" width="742.78" height="765.567" filterUnits="userSpaceOnUse" color-interpolation-filters="sRGB">
<feFlood flood-opacity="0" result="BackgroundImageFix"/>
<feBlend mode="normal" in="SourceGraphic" in2="BackgroundImageFix" result="shape"/>
<feGaussianBlur stdDeviation="50" result="effect1_foregroundBlur"/>
</filter>
</defs>
</svg>
